{
    "target" : "AudioCapture.bin",
    "platform" : "X86_64",
    "compiler" : "/usr/bin/g++",
    "buildPath" : "./build",
    "debugger" : "/usr/bin/gdb",
    "buildOptions" : ["-pipe", "-g", "-std=gnu++11", "-W", "-fPIC"],
    "sourcesPaths" : ["../SpecialK/LibSkFlat", "../SpecialK/LibSkCore", "../SpecialK/LibSkAudio"],
    "includeOptPaths" : [ ],
    "dynamicDeps" : [ ],
    "defines" : ["-DENABLE_SKAPP", "-DSPECIALK_APPLICATION", "-DENABLE_AES", "-DENABLE_AUDIO", "-DENABLE_PORTAUDIOLIB"],
    "libs" : ["-pthread", "-L/usr/lib", "-lm", "-lz", "-lcrypto", "-lportaudio"]
}
