{
    "widgets" :
    [
        {
            "type" : "Container",
            "html" :
            {
                "template" : "container.html",
                "defaultsForVariables" :
                {
                    "TAG" : "div",
                    "ATTRIBUTES" : "class='row'"
                }
            },
            "widgets" :
            [
                {
                    "type" : "Container",
                    "html" :
                    {
                        "template" : "container.html",
                        "defaultsForVariables" :
                        {
                            "TAG" : "div",
                            "ATTRIBUTES" : "class='col-md-3'"
                        }
                    },
                    "widgets" :
                    [
                        {
                            "type" : "Container",
                            "html" :
                            {
                                "template" : "components/image.html",
                                "defaultsForVariables" : {"SRC" : "/$$appName$$/MotionDetect.JPeg.multipart"}
                            }
                        }
                    ]
                },
                {
                    "type" : "Container",
                    "html" :
                    {
                        "template" : "container.html",
                        "defaultsForVariables" :
                        {
                            "TAG" : "div",
                            "ATTRIBUTES" : "class='col-md-9'"
                        }
                    },
                    "widgets" :
                    [
                        {
                            "type" : "Form",
                            "dbName" : "MotionDetect",
                            "key" : "changeConfig_TRANS"
                        }
                    ]
                }
            ]
        }
    ]
}
